<svg width="22" height="16" viewBox="0 0 22 16" fill="none" xmlns="http://www.w3.org/2000/svg">
  <title>Pfeil</title>
  <path d="M21.7071 8.70711C22.0976 8.31658 22.0976 7.68342 21.7071 7.2929L15.3431 0.928934C14.9526 0.538409 14.3195 0.538409 13.9289 0.928933C13.5384 1.31946 13.5384 1.95262 13.9289 2.34315L19.5858 8L13.9289 13.6569C13.5384 14.0474 13.5384 14.6805 13.9289 15.0711C14.3195 15.4616 14.9526 15.4616 15.3431 15.0711L21.7071 8.70711ZM-8.74228e-08 9L21 9L21 7L8.74228e-08 7L-8.74228e-08 9Z" fill="white"/>
</svg>
